[
  {
    "description": "    As a registered user, I want to be able to login to Castor Electronic Data Capture application",
    "keyword": "Feature",
    "name": "User account creation and login",
    "line": 1,
    "id": "user-account-creation-and-login",
    "tags": [],
    "uri": "login.feature",
    "elements": [
      {
        "id": "user-account-creation-and-login;login-to-castor-using-valid-credentials",
        "keyword": "Scenario",
        "line": 15,
        "name": "login to castor using valid credentials",
        "tags": [],
        "type": "scenario",
        "steps": [
          {
            "arguments": [],
            "keyword": "Given ",
            "line": 9,
            "name": "I visit the url of the castorEdc",
            "result": {
              "status": "passed",
              "duration": 3266000000
            }
          },
          {
            "arguments": [],
            "keyword": "When ",
            "line": 10,
            "name": "I enter \"spsaurabhpandey@gmail.com\" and \"Castor@123\" in \"Log in\" form",
            "result": {
              "status": "passed",
              "duration": 966000000
            }
          },
          {
            "arguments": [],
            "keyword": "And ",
            "line": 11,
            "name": "I click on \"Login\" button",
            "result": {
              "status": "passed",
              "duration": 215000000
            }
          },
          {
            "arguments": [],
            "keyword": "Then ",
            "line": 12,
            "name": "I should \"be\" logged in castorEdc",
            "result": {
              "status": "passed",
              "duration": 4006000000
            }
          }
        ]
      }
    ]
  }
]